…
``` r
name_height <- starwars %>%
  filter(height < 170) %>%
  select(name, height)

cat("Персонажи ниже 170 см:\n")
```

    Персонажи ниже 170 см:

``` r
name_height
```

    # A tibble: 23 × 2
       name                  height
       <chr>                  <int>
     1 C-3PO                    167
     2 R2-D2                     96
     3 Leia Organa              150
     4 Beru Whitesun lars       165
     5 R5-D4                     97
     6 Yoda                      66
     7 Mon Mothma               150
     8 Wicket Systri Warrick     88
     9 Nien Nunb                160
    10 Watto                    137
    # ℹ 13 more rows
``` r
starwars_with_bmi <- starwars %>%
  mutate(BMI = mass / (height/100)^2)
mass_height <- starwars_with_bmi %>%
  select(name, mass, height)
cat("Персонажи с ИМТ:\n")
```

    Персонажи с ИМТ:

``` r
mass_height
```

    # A tibble: 87 × 3
       name                mass height
       <chr>              <dbl>  <int>
     1 Luke Skywalker        77    172
     2 C-3PO                 75    167
     3 R2-D2                 32     96
     4 Darth Vader          136    202
     5 Leia Organa           49    150
     6 Owen Lars            120    178
     7 Beru Whitesun lars    75    165
     8 R5-D4                 32     97
     9 Biggs Darklighter     84    183
    10 Obi-Wan Kenobi        77    182
    # ℹ 77 more rows
…
``` r
avg_name_length_by_species <- starwars %>%
  group_by(species) %>%
  summarise(mean_name_length = mean(nchar(name)))
cat("Средняя длина имени в каждой расе:\n")
```

    Средняя длина имени в каждой расе:

``` r
avg_name_length_by_species
```

    # A tibble: 38 × 2
       species   mean_name_length
       <chr>                <dbl>
     1 Aleena               13   
     2 Besalisk             15   
     3 Cerean               12   
     4 Chagrian             10   
     5 Clawdite             10   
     6 Droid                 4.83
     7 Dug                   7   
     8 Ewok                 21   
     9 Geonosian            17   
    10 Gungan               11.7 
    # ℹ 28 more rows
