…
``` r
stability_summary <- queries %>%
  group_by(Station.MAC, Probed.ESSIDs) %>%
  summarize(
    Mean_Power = mean(Power, na.rm = TRUE),
    .groups = 'drop'
  ) %>%
  filter(!is.na(Mean_Power)) %>%
  arrange(Mean_Power)

stability_summary
```

    # A tibble: 12,062 × 3
       Station.MAC       Probed.ESSIDs     Mean_Power
       <chr>             <chr>                  <dbl>
     1 8A:45:77:F9:7F:F4 "iPhone (Дима )"         -89
     2 02:35:E9:C2:44:5F "iPhone (Максим)"        -88
     3 46:EA:D3:C0:50:1E ""                       -88
     4 C2:5B:0B:02:39:B1 "Galaxy A31CAED"         -88
     5 C4:D0:E3:5B:B4:6D ""                       -88
     6 0A:3B:54:B4:EF:1F ""                       -87
     7 4A:40:CA:E8:1A:08 ""                       -87
     8 50:8F:4C:71:25:96 ""                       -87
     9 92:5B:0A:A2:D6:1B ""                       -87
    10 AA:59:C8:6F:F3:2C ""                       -87
    # ℹ 12,052 more rows
…
